%YAML 1.1
%TAG !u! tag:unity3d.com,2011:
--- !u!78 &1
TagManager:
  serializedVersion: 2
  tags:
  - ColBody
  - Item
  layers:
  - Default
  - TransparentFX
  - Ignore Raycast
  - Items
  - Water
  - UI
  - ItemParents
  - WallsInner
  - WallsOuter
  - RivalWayPoints
  - RivalWayCheckpoints
  - Goal
  - 
  - 
  - 
  - 
  - 
  - 
  - 
  - 
  - 
  - 
  - 
  - 
  - 
  - 
  - 
  - 
  - 
  - 
  - 
  - 
  m_SortingLayers:
  - name: Default
    uniqueID: 0
    locked: 0
